{
    "prepare_queue": {
        "installed": [],
        "uninstalled": []
    },
    "config_munge": {
        "files": {}
    },
    "installed_plugins": {
        "cordova-plugin-device": {
            "PACKAGE_NAME": "ca.cpsparking.cpsapp"
        },
        "cordova-plugin-device-motion": {
            "PACKAGE_NAME": "ca.cpsparking.cpsapp"
        },
        "cordova-plugin-device-orientation": {
            "PACKAGE_NAME": "ca.cpsparking.cpsapp"
        },
        "cordova-plugin-dialogs": {
            "PACKAGE_NAME": "ca.cpsparking.cpsapp"
        },
        "cordova-plugin-inappbrowser": {
            "PACKAGE_NAME": "ca.cpsparking.cpsapp"
        },
        "cordova-plugin-network-information": {
            "PACKAGE_NAME": "ca.cpsparking.cpsapp"
        },
        "cordova-plugin-splashscreen": {
            "PACKAGE_NAME": "ca.cpsparking.cpsapp"
        },
        "cordova-plugin-statusbar": {
            "PACKAGE_NAME": "ca.cpsparking.cpsapp"
        },
        "cordova-plugin-vibration": {
            "PACKAGE_NAME": "ca.cpsparking.cpsapp"
        },
        "cordova-plugin-whitelist": {
            "PACKAGE_NAME": "ca.cpsparking.cpsapp"
        },
        "cordova-plugin-globalization": {
            "PACKAGE_NAME": "ca.cpsparking.cpsapp"
        },
        "cordova-plugin-networkinterface": {
            "PACKAGE_NAME": "ca.cpsparking.cpsapp"
        },
        "cordova-plugin-x-socialsharing": {
            "PACKAGE_NAME": "ca.cpsparking.cpsapp"
        },
        "cordova.plugins.diagnostic": {
            "PACKAGE_NAME": "ca.cpsparking.cpsapp"
        },
        "cordova-plugin-badge": {
            "PACKAGE_NAME": "ca.cpsparking.cpsapp"
        },
        "cordova-plugin-backbutton": {
            "PACKAGE_NAME": "ca.cpsparking.cpsapp"
        },
        "cordova-plugin-compat": {
            "PACKAGE_NAME": "ca.cpsparking.cpsapp"
        },
        "ionic-plugin-keyboard": {
            "PACKAGE_NAME": "ca.cpsparking.cpsapp"
        },
        "com.cmackay.plugins.googleanalytics": {
            "PACKAGE_NAME": "ca.cpsparking.cpsapp"
        },
        "de.appplant.cordova.plugin.local-notification": {
            "PACKAGE_NAME": "ca.cpsparking.cpsapp"
        },
        "cordova-plugin-request-location-accuracy": {
            "PACKAGE_NAME": "ca.cpsparking.cpsapp"
        },
        "com.philmerrell.cordova.canopen": {
            "PACKAGE_NAME": "ca.cpsparking.cpsapp"
        },
        "com.cps.plugin.getdevicedata": {
            "PACKAGE_NAME": "ca.cpsparking.cpsapp"
        },
        "cordova-plugin-locationservices": {
            "PACKAGE_NAME": "ca.cpsparking.cpsapp"
        },
        "cordova-plugin-geolocation": {
            "GEOLOCATION_USAGE_DESCRIPTION": " ",
            "PACKAGE_NAME": "ca.cpsparking.cpsapp"
        }
    },
    "dependent_plugins": {
        "cordova-plugin-app-event": {
            "PACKAGE_NAME": "ca.cpsparking.cpsapp"
        }
    }
}