<?xml version="1.0" encoding="UTF-8" standalone="no"?>
<svg
   xmlns:dc="http://purl.org/dc/elements/1.1/"
   xmlns:cc="http://creativecommons.org/ns#"
   xmlns:rdf="http://www.w3.org/1999/02/22-rdf-syntax-ns#"
   xmlns:svg="http://www.w3.org/2000/svg"
   xmlns="http://www.w3.org/2000/svg"
   xmlns:sodipodi="http://sodipodi.sourceforge.net/DTD/sodipodi-0.dtd"
   xmlns:inkscape="http://www.inkscape.org/namespaces/inkscape"
   width="512"
   height="512"
   version="1.1"
   id="svg2"
   inkscape:version="0.91 r13725"
   sodipodi:docname="026.svg">
  <metadata
     id="metadata10">
    <rdf:RDF>
      <cc:Work
         rdf:about="">
        <dc:format>image/svg+xml</dc:format>
        <dc:type
           rdf:resource="http://purl.org/dc/dcmitype/StillImage" />
        <dc:title></dc:title>
      </cc:Work>
    </rdf:RDF>
  </metadata>
  <defs
     id="defs8" />
  <sodipodi:namedview
     pagecolor="#ffffff"
     bordercolor="#666666"
     borderopacity="1"
     objecttolerance="10"
     gridtolerance="10"
     guidetolerance="10"
     inkscape:pageopacity="0"
     inkscape:pageshadow="2"
     inkscape:window-width="1366"
     inkscape:window-height="704"
     id="namedview6"
     showgrid="false"
     inkscape:zoom="0.15733333"
     inkscape:cx="-317.79661"
     inkscape:cy="750"
     inkscape:window-x="0"
     inkscape:window-y="27"
     inkscape:window-maximized="1"
     inkscape:current-layer="svg2" />
  <path
     unicode="B"
     d="m 387,344 c -16,0 -28,-12 -28,-27 0,-16 12,-28 28,-28 15,0 27,12 27,28 0,15 -12,27 -27,27 m -157,-112 0,-63 59,0 33,63 z m -17,0 -93,0 33,-63 60,0 z m -77,112 c -15,0 -28,-12 -28,-27 0,-16 13,-28 28,-28 16,0 28,12 28,28 0,15 -12,27 -28,27 m 330,-67 0,-21 -104,-30 -59,-78 -168,0 -43,78 -50,20 0,31 -13,0 0,40 59,0 c 1,26 22,47 48,47 26,0 48,-21 48,-47 l 155,0 c 0,26 22,47 48,47 26,0 47,-21 48,-47 l 48,0 0,-40 z m -136,53 -137,0 c -2,5 -4,10 -6,15 l 149,0 c -2,-5 -4,-10 -6,-15 m -250,0 -38,0 0,15 44,0 c -3,-5 -5,-10 -6,-15 m 357,15 33,0 0,-15 -27,0 c -1,5 -3,10 -6,15"
     id="path4"
     inkscape:connector-curvature="0" />
</svg>
