<?xml version="1.0" encoding="UTF-8" standalone="no"?>
<svg
   xmlns:dc="http://purl.org/dc/elements/1.1/"
   xmlns:cc="http://creativecommons.org/ns#"
   xmlns:rdf="http://www.w3.org/1999/02/22-rdf-syntax-ns#"
   xmlns:svg="http://www.w3.org/2000/svg"
   xmlns="http://www.w3.org/2000/svg"
   xmlns:sodipodi="http://sodipodi.sourceforge.net/DTD/sodipodi-0.dtd"
   xmlns:inkscape="http://www.inkscape.org/namespaces/inkscape"
   width="512"
   height="512"
   version="1.1"
   id="svg2"
   inkscape:version="0.91 r13725"
   sodipodi:docname="028.svg">
  <metadata
     id="metadata10">
    <rdf:RDF>
      <cc:Work
         rdf:about="">
        <dc:format>image/svg+xml</dc:format>
        <dc:type
           rdf:resource="http://purl.org/dc/dcmitype/StillImage" />
        <dc:title></dc:title>
      </cc:Work>
    </rdf:RDF>
  </metadata>
  <defs
     id="defs8" />
  <sodipodi:namedview
     pagecolor="#ffffff"
     bordercolor="#666666"
     borderopacity="1"
     objecttolerance="10"
     gridtolerance="10"
     guidetolerance="10"
     inkscape:pageopacity="0"
     inkscape:pageshadow="2"
     inkscape:window-width="1366"
     inkscape:window-height="704"
     id="namedview6"
     showgrid="false"
     inkscape:zoom="0.15733333"
     inkscape:cx="-317.79661"
     inkscape:cy="750"
     inkscape:window-x="0"
     inkscape:window-y="27"
     inkscape:window-maximized="1"
     inkscape:current-layer="svg2" />
  <path
     unicode="D"
     d="m 240,177 c 1,-1 1,-1 1,-2 0,-1 0,-2 -1,-2 0,-1 -1,-1 -2,-1 l -2,0 0,5 2,0 c 1,0 2,0 2,0 m 9,-4 -2,6 4,0 z m 15,4 c 0,0 1,-1 1,-2 0,-1 -1,-2 -1,-2 -1,-1 -2,-1 -3,-1 l -2,0 0,6 1,0 c 2,0 3,0 4,-1 m 148,137 c -3,2 -5,4 -7,7 0,1 -35,77 -91,121 l -116,0 c -56,-44 -91,-120 -91,-121 -2,-3 -4,-5 -6,-6 -1,-1 -12,-8 -12,-30 0,-23 11,-31 12,-31 4,-2 7,-7 7,-13 l 0,-24 c 26,27 83,45 148,45 65,0 122,-18 148,-45 l 0,24 c 0,6 3,11 7,13 0,0 12,8 12,31 0,22 -11,29 -11,29 M 187,175 c 1,-1 1,-2 2,-3 1,-1 2,-1 3,-2 1,0 2,0 3,0 1,0 3,0 4,1 1,1 2,2 2,3 l -2,0 c -1,-1 -1,-1 -2,-2 -1,0 -2,0 -2,0 -1,0 -2,0 -3,0 0,1 -1,1 -1,2 -1,0 -1,1 -2,1 0,1 0,2 0,3 0,0 0,1 0,2 1,1 1,1 2,2 0,0 1,1 1,1 1,0 2,0 3,0 0,0 1,0 2,0 1,0 1,-1 2,-1 l 2,0 c 0,1 -1,2 -2,3 -2,0 -3,1 -4,1 -2,0 -3,-1 -4,-1 -1,0 -1,-1 -2,-2 -1,-1 -1,-1 -2,-2 0,-1 0,-2 0,-3 0,-1 0,-2 0,-3 m 17,-5 2,0 0,15 -2,0 z m 3,0 8,0 0,1 0,-1 3,0 3,7 3,-7 3,0 -5,10 0,5 -2,0 0,-5 -5,-9 0,1 -2,0 0,13 -3,0 0,-13 -3,0 z m 27,0 3,0 c 1,0 2,0 3,0 0,0 1,0 1,1 1,0 1,1 2,1 0,1 0,2 0,3 0,1 0,2 -1,3 -1,1 -3,1 -4,1 l -2,0 0,6 -2,0 z m 16,0 6,15 -3,0 -1,-4 -6,0 -2,4 -2,0 6,-15 z m 7,0 4,0 c 2,0 3,0 4,1 1,1 2,2 2,4 0,1 -1,2 -1,3 -1,1 -2,1 -4,1 l 5,6 -3,0 -5,-7 0,7 -2,0 z m 12,0 2,0 0,15 -2,0 z m 8,0 3,0 -6,8 6,7 -3,0 -6,-7 z m 13,17 0,-8 4,6 -24,24 -12,0 22,-22 z m -9,-17 2,0 0,15 -2,0 z m 5,0 2,0 8,12 -1,-12 3,0 0,15 -3,0 -7,-12 0,12 -2,0 z m 8,3 0,3 -1,-2 z m 15,9 0,-1 1,0 c -1,1 -1,1 -1,1 m -7,-2 c 1,1 1,1 1,2 1,0 2,1 2,1 1,0 2,0 2,0 2,0 3,0 4,0 0,-1 1,-2 2,-3 l -7,0 0,-2 9,0 c 0,2 -1,4 -2,5 -2,2 -3,3 -6,3 -1,0 -2,-1 -3,-1 -1,0 -2,-1 -2,-2 -1,-1 -2,-1 -2,-2 0,-1 0,-2 0,-3 0,-1 0,-2 0,-3 1,-1 1,-2 2,-3 1,-1 2,-1 3,-2 0,0 1,0 3,0 1,0 3,0 4,1 1,1 2,2 2,3 l -2,0 c -1,-1 -2,-1 -2,-2 -1,0 -2,0 -3,0 0,0 -1,0 -2,0 0,1 -1,1 -1,2 -1,0 -1,1 -2,1 0,1 0,2 0,3 0,0 0,1 0,2 m 23,8 0,12 -8,9 -12,0 z m -32,21 -12,0 23,-23 c 0,1 0,1 1,1 2,1 5,0 7,-1 2,-1 3,-2 4,-3 1,-1 1,-3 1,-5 l 0,-2 -3,0 1,0 2,0 c 0,-1 0,-2 0,-2 l 8,-9 0,12 z m 32,-67 0,12 -15,14 c -2,0 -4,0 -5,1 -3,1 -4,2 -5,4 l 0,-5 -1,0 z M 483,114 C 483,73 382,40 256,40 130,40 29,73 29,114 c 0,18 18,34 50,47 l 0,73 c -10,9 -20,26 -20,51 0,28 13,45 23,52 8,18 45,89 102,132 3,2 6,3 9,3 l 126,0 c 3,0 6,-1 9,-3 57,-43 94,-114 102,-132 10,-7 23,-24 23,-52 0,-25 -10,-42 -20,-51 l 0,-73 c 32,-13 50,-29 50,-47 M 204,370 c 6,20 27,34 52,34 24,0 45,-14 51,-34 -11,12 -30,20 -51,20 -22,0 -41,-8 -52,-20 m -12,-92 c -9,0 -16,7 -16,16 0,9 7,16 16,16 9,0 17,-7 17,-16 0,-9 -8,-16 -17,-16 m 127,0 c -9,0 -16,7 -16,16 0,9 7,16 16,16 9,0 17,-7 17,-16 0,-9 -8,-16 -17,-16 m -63,74 c 11,0 20,-8 20,-17 0,-1 0,-3 0,-4 -3,7 -11,12 -20,12 -10,0 -18,-5 -20,-12 -1,1 -1,3 -1,4 0,9 9,17 21,17"
     id="path4"
     inkscape:connector-curvature="0" />
</svg>
