<?xml version="1.0" encoding="UTF-8" standalone="no"?>
<svg
   xmlns:dc="http://purl.org/dc/elements/1.1/"
   xmlns:cc="http://creativecommons.org/ns#"
   xmlns:rdf="http://www.w3.org/1999/02/22-rdf-syntax-ns#"
   xmlns:svg="http://www.w3.org/2000/svg"
   xmlns="http://www.w3.org/2000/svg"
   xmlns:sodipodi="http://sodipodi.sourceforge.net/DTD/sodipodi-0.dtd"
   xmlns:inkscape="http://www.inkscape.org/namespaces/inkscape"
   width="512"
   height="512"
   version="1.1"
   id="svg2"
   inkscape:version="0.91 r13725"
   sodipodi:docname="011.svg">
  <metadata
     id="metadata10">
    <rdf:RDF>
      <cc:Work
         rdf:about="">
        <dc:format>image/svg+xml</dc:format>
        <dc:type
           rdf:resource="http://purl.org/dc/dcmitype/StillImage" />
        <dc:title></dc:title>
      </cc:Work>
    </rdf:RDF>
  </metadata>
  <defs
     id="defs8" />
  <sodipodi:namedview
     pagecolor="#ffffff"
     bordercolor="#666666"
     borderopacity="1"
     objecttolerance="10"
     gridtolerance="10"
     guidetolerance="10"
     inkscape:pageopacity="0"
     inkscape:pageshadow="2"
     inkscape:window-width="1366"
     inkscape:window-height="704"
     id="namedview6"
     showgrid="false"
     inkscape:zoom="0.15733333"
     inkscape:cx="-317.79661"
     inkscape:cy="750"
     inkscape:window-x="0"
     inkscape:window-y="27"
     inkscape:window-maximized="1"
     inkscape:current-layer="svg2" />
  <path
     unicode="k"
     d="m 384,105 c 0,0 -73,0 -73,0 -4,0 -9,3 -13,8 -3,5 -5,12 -5,19 0,0 0,52 0,52 0,0 91,0 91,0 0,0 0,76 0,76 0,0 -91,0 -91,0 0,0 0,226 0,226 0,0 -87,0 -87,0 0,0 0,-226 0,-226 0,0 -78,0 -78,0 0,0 0,-76 0,-76 0,0 78,0 78,0 0,0 0,-44 0,-44 0,-32 10,-59 30,-81 20,-22 45,-33 75,-33 0,0 73,0 73,0 0,0 0,79 0,79"
     id="path4"
     inkscape:connector-curvature="0" />
</svg>
