<?xml version="1.0" encoding="UTF-8" standalone="no"?>
<svg
   xmlns:dc="http://purl.org/dc/elements/1.1/"
   xmlns:cc="http://creativecommons.org/ns#"
   xmlns:rdf="http://www.w3.org/1999/02/22-rdf-syntax-ns#"
   xmlns:svg="http://www.w3.org/2000/svg"
   xmlns="http://www.w3.org/2000/svg"
   xmlns:sodipodi="http://sodipodi.sourceforge.net/DTD/sodipodi-0.dtd"
   xmlns:inkscape="http://www.inkscape.org/namespaces/inkscape"
   width="512"
   height="512"
   version="1.1"
   id="svg2"
   inkscape:version="0.91 r13725"
   sodipodi:docname="010.svg">
  <metadata
     id="metadata10">
    <rdf:RDF>
      <cc:Work
         rdf:about="">
        <dc:format>image/svg+xml</dc:format>
        <dc:type
           rdf:resource="http://purl.org/dc/dcmitype/StillImage" />
        <dc:title></dc:title>
      </cc:Work>
    </rdf:RDF>
  </metadata>
  <defs
     id="defs8" />
  <sodipodi:namedview
     pagecolor="#ffffff"
     bordercolor="#666666"
     borderopacity="1"
     objecttolerance="10"
     gridtolerance="10"
     guidetolerance="10"
     inkscape:pageopacity="0"
     inkscape:pageshadow="2"
     inkscape:window-width="1366"
     inkscape:window-height="704"
     id="namedview6"
     showgrid="false"
     inkscape:zoom="0.15733333"
     inkscape:cx="-317.79661"
     inkscape:cy="750"
     inkscape:window-x="0"
     inkscape:window-y="27"
     inkscape:window-maximized="1"
     inkscape:current-layer="svg2" />
  <path
     unicode="j"
     d="m 256,10 c 68,0 126,24 174,72 48,48 72,106 72,174 0,68 -24,125 -72,174 -48,48 -106,72 -174,72 C 188,502 130,478 82,430 34,381 10,324 10,256 10,188 34,130 82,82 130,34 188,10 256,10 m 58,169 c 0,0 0,-40 0,-40 0,0 -36,0 -36,0 -16,0 -28,6 -38,17 -11,11 -16,25 -16,42 0,0 0,22 0,22 0,0 -39,0 -39,0 0,0 0,38 0,38 0,0 39,0 39,0 0,0 0,114 0,114 0,0 44,0 44,0 0,0 0,-114 0,-114 0,0 46,0 46,0 0,0 0,-38 0,-38 0,0 -46,0 -46,0 0,0 0,-26 0,-26 0,-10 3,-15 10,-15 0,0 36,0 36,0"
     id="path4"
     inkscape:connector-curvature="0" />
</svg>
