<?xml version="1.0" encoding="UTF-8" standalone="no"?>
<svg
   xmlns:dc="http://purl.org/dc/elements/1.1/"
   xmlns:cc="http://creativecommons.org/ns#"
   xmlns:rdf="http://www.w3.org/1999/02/22-rdf-syntax-ns#"
   xmlns:svg="http://www.w3.org/2000/svg"
   xmlns="http://www.w3.org/2000/svg"
   xmlns:sodipodi="http://sodipodi.sourceforge.net/DTD/sodipodi-0.dtd"
   xmlns:inkscape="http://www.inkscape.org/namespaces/inkscape"
   width="512"
   height="512"
   version="1.1"
   id="svg2"
   inkscape:version="0.91 r13725"
   sodipodi:docname="030.svg">
  <metadata
     id="metadata10">
    <rdf:RDF>
      <cc:Work
         rdf:about="">
        <dc:format>image/svg+xml</dc:format>
        <dc:type
           rdf:resource="http://purl.org/dc/dcmitype/StillImage" />
        <dc:title></dc:title>
      </cc:Work>
    </rdf:RDF>
  </metadata>
  <defs
     id="defs8" />
  <sodipodi:namedview
     pagecolor="#ffffff"
     bordercolor="#666666"
     borderopacity="1"
     objecttolerance="10"
     gridtolerance="10"
     guidetolerance="10"
     inkscape:pageopacity="0"
     inkscape:pageshadow="2"
     inkscape:window-width="1366"
     inkscape:window-height="704"
     id="namedview6"
     showgrid="false"
     inkscape:zoom="0.15733333"
     inkscape:cx="-317.79661"
     inkscape:cy="750"
     inkscape:window-x="0"
     inkscape:window-y="27"
     inkscape:window-maximized="1"
     inkscape:current-layer="svg2" />
  <path
     unicode="F"
     d="m 405,256 c 0,-82 -66,-148 -148,-148 -82,-1 -149,65 -149,147 -1,83 66,149 148,149 83,0 149,-66 149,-148 M 243,28 l 26,0 0,53 c 94,15 147,69 162,162 l 53,0 0,24 c -18,1 -36,1 -53,2 -15,93 -69,147 -162,162 l 0,53 -24,0 0,-53 C 150,415 96,362 82,269 l -54,0 0,-2 c 0,-8 1,-15 2,-24 l 52,0 c 5,-43 21,-80 51,-110 31,-30 68,-46 110,-51 z m 14,138 c 49,0 90,41 90,90 0,49 -41,91 -91,90 -49,0 -90,-40 -90,-90 0,-50 41,-90 91,-90"
     id="path4"
     inkscape:connector-curvature="0" />
</svg>
