<?xml version="1.0" encoding="UTF-8" standalone="no"?>
<svg
   xmlns:dc="http://purl.org/dc/elements/1.1/"
   xmlns:cc="http://creativecommons.org/ns#"
   xmlns:rdf="http://www.w3.org/1999/02/22-rdf-syntax-ns#"
   xmlns:svg="http://www.w3.org/2000/svg"
   xmlns="http://www.w3.org/2000/svg"
   xmlns:sodipodi="http://sodipodi.sourceforge.net/DTD/sodipodi-0.dtd"
   xmlns:inkscape="http://www.inkscape.org/namespaces/inkscape"
   width="512"
   height="512"
   version="1.1"
   id="svg2"
   inkscape:version="0.91 r13725"
   sodipodi:docname="015.svg">
  <metadata
     id="metadata10">
    <rdf:RDF>
      <cc:Work
         rdf:about="">
        <dc:format>image/svg+xml</dc:format>
        <dc:type
           rdf:resource="http://purl.org/dc/dcmitype/StillImage" />
        <dc:title></dc:title>
      </cc:Work>
    </rdf:RDF>
  </metadata>
  <defs
     id="defs8" />
  <sodipodi:namedview
     pagecolor="#ffffff"
     bordercolor="#666666"
     borderopacity="1"
     objecttolerance="10"
     gridtolerance="10"
     guidetolerance="10"
     inkscape:pageopacity="0"
     inkscape:pageshadow="2"
     inkscape:window-width="1366"
     inkscape:window-height="704"
     id="namedview6"
     showgrid="false"
     inkscape:zoom="0.15733333"
     inkscape:cx="-317.79661"
     inkscape:cy="750"
     inkscape:window-x="0"
     inkscape:window-y="27"
     inkscape:window-maximized="1"
     inkscape:current-layer="svg2" />
  <path
     unicode="o"
     d="m 253.0163,20 c 65,0 120,22 167,67 46,45 70,100 72,165 0,65 -22,121 -68,167 -45,47 -100,71 -165,73 -65,0 -121,-22 -167.000001,-68 -47,-45 -71,-100 -72,-165 -1,-65 21,-121 67,-167 C 133.0163,45 188.0163,21 253.0163,20 m -1,379 c 10,0 19,-3 25,-9 6,-7 10,-15 10,-24 0,-11 -2,-19 -9,-26 -6,-6 -15,-9 -25,-9 0,0 -1,0 -1,0 -10,0 -18,3 -24,9 -7,6 -10,14 -11,24 0,10 3,18 10,25 6,6 14,10 24,10 0,0 1,0 1,0 m 85,-168 c 9,-11 13,-24 13,-40 0,-26 -9,-46 -27,-59 -18,-13 -41,-19 -69,-19 -22,0 -40,4 -53,13 -24,14 -36,39 -37,75 0,0 0,2 0,2 0,0 56,0 56,0 0,0 0,-2 0,-2 0,-9 3,-18 8,-28 6,-8 15,-12 28,-12 14,0 23,3 27,10 5,7 8,14 8,23 0,6 -3,13 -8,20 -3,4 -7,8 -11,10 0,0 -3,2 -3,2 -2,2 -4,4 -8,6 -3,2 -7,5 -10,8 -4,2 -7,5 -11,8 -4,3 -7,6 -9,9 -4,7 -7,20 -9,40 0,0 0,4 0,4 0,0 56,0 56,0 0,0 0,-2 0,-2 0,-4 0,-9 2,-14 2,-7 6,-13 14,-19 0,0 14,-9 14,-9 16,-12 25,-20 29,-26"
     id="path4"
     inkscape:connector-curvature="0" />
</svg>
