<?xml version="1.0" encoding="UTF-8" standalone="no"?>
<svg
   xmlns:dc="http://purl.org/dc/elements/1.1/"
   xmlns:cc="http://creativecommons.org/ns#"
   xmlns:rdf="http://www.w3.org/1999/02/22-rdf-syntax-ns#"
   xmlns:svg="http://www.w3.org/2000/svg"
   xmlns="http://www.w3.org/2000/svg"
   xmlns:sodipodi="http://sodipodi.sourceforge.net/DTD/sodipodi-0.dtd"
   xmlns:inkscape="http://www.inkscape.org/namespaces/inkscape"
   width="512"
   height="512"
   version="1.1"
   id="svg2"
   inkscape:version="0.91 r13725"
   sodipodi:docname="033.svg">
  <metadata
     id="metadata10">
    <rdf:RDF>
      <cc:Work
         rdf:about="">
        <dc:format>image/svg+xml</dc:format>
        <dc:type
           rdf:resource="http://purl.org/dc/dcmitype/StillImage" />
        <dc:title></dc:title>
      </cc:Work>
    </rdf:RDF>
  </metadata>
  <defs
     id="defs8" />
  <sodipodi:namedview
     pagecolor="#ffffff"
     bordercolor="#666666"
     borderopacity="1"
     objecttolerance="10"
     gridtolerance="10"
     guidetolerance="10"
     inkscape:pageopacity="0"
     inkscape:pageshadow="2"
     inkscape:window-width="1366"
     inkscape:window-height="704"
     id="namedview6"
     showgrid="false"
     inkscape:zoom="0.15733333"
     inkscape:cx="-317.79661"
     inkscape:cy="750"
     inkscape:window-x="0"
     inkscape:window-y="27"
     inkscape:window-maximized="1"
     inkscape:current-layer="svg2" />
  <path
     unicode="I"
     d="m 63,256 c 0,51 0,103 0,154 0,6 2,13 4,19 7,14 19,20 35,20 74,0 149,0 223,0 11,0 16,-4 17,-14 1,-10 1,-20 2,-30 0,-15 0,-30 0,-45 0,-9 7,-15 16,-16 2,0 4,0 6,0 21,0 41,0 62,-1 15,0 21,-6 21,-20 0,-74 0,-148 0,-222 0,-6 -2,-12 -4,-18 -7,-14 -19,-20 -35,-20 -65,0 -129,0 -194,0 -38,0 -77,0 -115,0 -12,0 -23,4 -30,14 -6,8 -8,16 -8,25 0,51 0,103 0,154 m 421,-164 0,238 c -1,2 -2,4 -3,5 -5,14 -15,25 -25,35 -26,26 -52,53 -78,79 -14,14 -29,28 -48,35 l -238,0 c -1,-1 -2,-1 -3,-1 -25,-4 -42,-17 -53,-39 -4,-7 -5,-16 -8,-24 L 28,92 c 1,-1 1,-2 1,-3 4,-25 17,-42 39,-53 7,-4 16,-5 24,-8 l 328,0 c 1,1 2,1 3,1 25,4 42,17 53,39 4,7 5,16 8,24 m -227,77 c 34,0 67,0 101,0 8,0 15,2 18,9 6,12 -2,24 -16,25 0,0 -1,0 -2,0 -68,0 -136,0 -205,0 -9,0 -15,-3 -18,-11 -4,-10 2,-21 13,-23 2,0 5,0 7,0 34,0 68,0 102,0 m -19,122 c -29,0 -57,0 -85,0 -11,0 -18,-7 -19,-16 -1,-11 7,-18 18,-19 2,0 4,0 6,0 55,0 110,0 166,0 9,0 15,4 18,12 4,9 -2,20 -11,22 -3,1 -6,1 -9,1 -28,0 -56,0 -84,0"
     id="path4"
     inkscape:connector-curvature="0" />
</svg>
