<?xml version="1.0" encoding="UTF-8" standalone="no"?>
<svg
   xmlns:dc="http://purl.org/dc/elements/1.1/"
   xmlns:cc="http://creativecommons.org/ns#"
   xmlns:rdf="http://www.w3.org/1999/02/22-rdf-syntax-ns#"
   xmlns:svg="http://www.w3.org/2000/svg"
   xmlns="http://www.w3.org/2000/svg"
   xmlns:sodipodi="http://sodipodi.sourceforge.net/DTD/sodipodi-0.dtd"
   xmlns:inkscape="http://www.inkscape.org/namespaces/inkscape"
   width="512"
   height="512"
   version="1.1"
   id="svg2"
   inkscape:version="0.91 r13725"
   sodipodi:docname="035.svg">
  <metadata
     id="metadata10">
    <rdf:RDF>
      <cc:Work
         rdf:about="">
        <dc:format>image/svg+xml</dc:format>
        <dc:type
           rdf:resource="http://purl.org/dc/dcmitype/StillImage" />
        <dc:title></dc:title>
      </cc:Work>
    </rdf:RDF>
  </metadata>
  <defs
     id="defs8" />
  <sodipodi:namedview
     pagecolor="#ffffff"
     bordercolor="#666666"
     borderopacity="1"
     objecttolerance="10"
     gridtolerance="10"
     guidetolerance="10"
     inkscape:pageopacity="0"
     inkscape:pageshadow="2"
     inkscape:window-width="1366"
     inkscape:window-height="704"
     id="namedview6"
     showgrid="false"
     inkscape:zoom="0.15733333"
     inkscape:cx="-317.79661"
     inkscape:cy="750"
     inkscape:window-x="0"
     inkscape:window-y="27"
     inkscape:window-maximized="1"
     inkscape:current-layer="svg2" />
  <path
     unicode="K"
     d="m 359,426 -206,0 0,-340 206,0 z m -72,40 -30,0 c 0,0 -1,0 -1,0 0,0 -1,0 -1,0 l -29,0 c -7,0 -13,-6 -13,-12 0,-7 6,-13 13,-13 l 61,0 c 6,0 12,6 12,13 0,6 -6,12 -12,12 M 337,29 175,29 c -24,0 -43,19 -43,43 l 0,368 c 0,24 19,43 43,43 l 162,0 c 24,0 43,-19 43,-43 L 380,72 C 380,48 361,29 337,29 m -59,274 c -4,4 -8,6 -14,8 l 1,-44 c 7,2 11,5 14,9 3,3 4,8 4,13 0,5 -2,10 -5,14 m -28,-73 c -5,-2 -9,-5 -11,-8 -2,-4 -3,-8 -3,-11 0,-5 1,-9 4,-12 3,-4 6,-6 11,-7 z m 52,26 c -7,-8 -18,-15 -36,-20 l 1,-44 c 7,4 12,10 13,19 l 28,-3 c -1,-12 -6,-20 -13,-27 -7,-7 -16,-12 -28,-13 l 1,-11 -16,-1 -1,11 c -12,1 -23,6 -30,14 -8,8 -13,18 -13,30 0,12 3,23 10,31 6,8 17,15 31,20 l -1,47 c -4,-3 -8,-6 -11,-10 -3,-4 -5,-10 -6,-16 l -30,3 c 3,14 7,25 15,34 8,8 18,13 31,15 l -1,20 17,1 0,-21 c 15,-2 26,-7 35,-16 8,-9 12,-20 12,-34 1,-12 -2,-22 -8,-29"
     id="path4"
     inkscape:connector-curvature="0" />
</svg>
