<?xml version="1.0" encoding="UTF-8" standalone="no"?>
<svg
   xmlns:dc="http://purl.org/dc/elements/1.1/"
   xmlns:cc="http://creativecommons.org/ns#"
   xmlns:rdf="http://www.w3.org/1999/02/22-rdf-syntax-ns#"
   xmlns:svg="http://www.w3.org/2000/svg"
   xmlns="http://www.w3.org/2000/svg"
   xmlns:sodipodi="http://sodipodi.sourceforge.net/DTD/sodipodi-0.dtd"
   xmlns:inkscape="http://www.inkscape.org/namespaces/inkscape"
   width="512"
   height="512"
   version="1.1"
   id="svg2"
   inkscape:version="0.91 r13725"
   sodipodi:docname="021.svg">
  <metadata
     id="metadata10">
    <rdf:RDF>
      <cc:Work
         rdf:about="">
        <dc:format>image/svg+xml</dc:format>
        <dc:type
           rdf:resource="http://purl.org/dc/dcmitype/StillImage" />
        <dc:title></dc:title>
      </cc:Work>
    </rdf:RDF>
  </metadata>
  <defs
     id="defs8" />
  <sodipodi:namedview
     pagecolor="#ffffff"
     bordercolor="#666666"
     borderopacity="1"
     objecttolerance="10"
     gridtolerance="10"
     guidetolerance="10"
     inkscape:pageopacity="0"
     inkscape:pageshadow="2"
     inkscape:window-width="1366"
     inkscape:window-height="704"
     id="namedview6"
     showgrid="false"
     inkscape:zoom="0.15733333"
     inkscape:cx="750"
     inkscape:cy="750"
     inkscape:window-x="0"
     inkscape:window-y="27"
     inkscape:window-maximized="1"
     inkscape:current-layer="svg2" />
  <path
     unicode="w"
     d="m 256,10 c 68,0 126,24 174,72 48,48 72,106 72,174 0,68 -24,125 -72,174 -48,48 -106,72 -174,72 C 188,502 131,478 82,430 34,381 10,324 10,256 10,188 34,130 82,82 131,34 188,10 256,10 m 100,201 c 11,-8 18,-16 24,-25 -11,4 -20,7 -28,8 10,-7 18,-15 22,-27 -10,5 -21,9 -31,11 -10,-9 -21,-14 -36,-14 -13,0 -25,5 -34,14 -9,10 -14,21 -14,34 0,1 0,2 1,5 0,3 0,5 0,6 -41,-2 -74,-19 -99,-51 -5,8 -7,16 -7,25 0,17 7,30 22,40 -9,0 -16,-3 -22,-7 0,0 0,1 0,1 0,12 3,22 10,31 8,9 17,14 29,17 -6,1 -10,2 -13,2 -4,0 -7,-1 -9,-1 7,22 22,33 45,33 -17,14 -37,21 -60,21 0,0 -12,0 -12,0 24,14 48,21 74,21 42,0 75,-14 100,-42 26,-28 38,-60 38,-96 0,0 0,-6 0,-6"
     id="path4"
     inkscape:connector-curvature="0" />
</svg>
