<?xml version="1.0" encoding="UTF-8" standalone="no"?>
<svg
   xmlns:dc="http://purl.org/dc/elements/1.1/"
   xmlns:cc="http://creativecommons.org/ns#"
   xmlns:rdf="http://www.w3.org/1999/02/22-rdf-syntax-ns#"
   xmlns:svg="http://www.w3.org/2000/svg"
   xmlns="http://www.w3.org/2000/svg"
   xmlns:sodipodi="http://sodipodi.sourceforge.net/DTD/sodipodi-0.dtd"
   xmlns:inkscape="http://www.inkscape.org/namespaces/inkscape"
   width="512"
   height="512"
   version="1.1"
   id="svg2"
   inkscape:version="0.91 r13725"
   sodipodi:docname="020.svg">
  <metadata
     id="metadata10">
    <rdf:RDF>
      <cc:Work
         rdf:about="">
        <dc:format>image/svg+xml</dc:format>
        <dc:type
           rdf:resource="http://purl.org/dc/dcmitype/StillImage" />
        <dc:title></dc:title>
      </cc:Work>
    </rdf:RDF>
  </metadata>
  <defs
     id="defs8" />
  <sodipodi:namedview
     pagecolor="#ffffff"
     bordercolor="#666666"
     borderopacity="1"
     objecttolerance="10"
     gridtolerance="10"
     guidetolerance="10"
     inkscape:pageopacity="0"
     inkscape:pageshadow="2"
     inkscape:window-width="1366"
     inkscape:window-height="704"
     id="namedview6"
     showgrid="false"
     inkscape:zoom="0.15733333"
     inkscape:cx="-317.79661"
     inkscape:cy="750"
     inkscape:window-x="0"
     inkscape:window-y="27"
     inkscape:window-maximized="1"
     inkscape:current-layer="svg2" />
  <path
     unicode="v"
     d="m 492,110.5 c -13,18 -29,35 -49,50 0,0 0,12 0,12 0,44 -10,87 -30,128 -21,41 -53,76 -96,104 -43,28 -92,42 -148,42 -55,0 -104,-14 -149,-43 5,1 13,1 24,1 45,0 85,-13 120,-40 -21,-1 -40,-8 -56,-20 -17,-12 -28,-28 -34,-48 3,1 9,2 17,2 9,0 18,-1 26,-3 -23,-5 -41,-16 -56,-34 -14,-18 -21,-38 -21,-61 0,0 0,-1 0,-1 12,6 27,11 43,12 -29,-20 -43,-47 -43,-81 0,-16 4,-32 13,-48 53,64 119,98 200,100 -2,-6 -3,-13 -3,-21 0,-27 9,-50 28,-68 19,-19 42,-28 69,-28 28,0 51,9 70,29 20,-4 41,-11 61,-22 -7,22 -21,40 -42,53 19,-3 38,-8 56,-15"
     id="path4"
     inkscape:connector-curvature="0" />
</svg>
